data/Felipe Week 3/Data set 1/Data set 1/+45.+45.third.csv

Record Length,2500,Points,-2.10E-03,0,,Record Length,2500,Points,-2.10E-03,8.00E-02
Sample Interval,2.00E-06,s,-2.10E-03,0,,Sample Interval,2.00E-06,s,-2.10E-03,0
Trigger Point,1.05E+03,Samples,-2.10E-03,8.00E-02,,Trigger Point,1.05E+03,Samples,-2.10E-03,8.00E-02
,,,-2.09E-03,8.00E-02,,,,,-2.09E-03,8.00E-02
,,,-2.09E-03,0,,,,,-2.09E-03,0
,,,-2.09E-03,0,,,,,-2.09E-03,8.00E-02
Source,CH1,,-2.09E-03,8.00E-02,,Source,CH2,,-2.09E-03,0
Vertical Units,Volts,,-2.09E-03,0,,Vertical Units,Volts,,-2.09E-03,8.00E-02
Vertical Scale,2.0478125,,-2.08E-03,0,,Vertical Scale,2.0478125,,-2.08E-03,0
Vertical Offset,0,,-2.08E-03,0,,Vertical Offset,0,,-2.08E-03,0
Horizontal Units,s,,-2.08E-03,0,,Horizontal Units,s,,-2.08E-03,0
Horizontal Scale,5.00E-04,,-2.08E-03,8.00E-02,,Horizontal Scale,5.00E-04,,-2.08E-03,8.00E-02
Pt Fmt,Y,,-2.08E-03,8.00E-02,,Pt Fmt,Y,,-2.08E-03,0
Yzero,-2.3439646,,-2.07E-03,0,,Yzero,-2.3439646,,-2.07E-03,8.00E-02
Probe Atten,1,,-2.07E-03,8.00E-02,,Probe Atten,1,,-2.07E-03,0
,,,-2.07E-03,8.00E-02,,,,,-2.07E-03,8.00E-02
Note,TDS 1012B - 14:35:56   12/10/2023,,-2.07E-03,8.00E-02,,Note,TDS 1012B - 14:35:56   12/10/2023,,-2.07E-03,8.00E-02
,,,-2.07E-03,8.00E-02,,,,,-2.07E-03,8.00E-02
,,,-2.06E-03,0,,,,,-2.06E-03,0
,,,-2.06E-03,0,,,,,-2.06E-03,0
,,,-2.06E-03,8.00E-02,,,,,-2.06E-03,8.00E-02
,,,-2.06E-03,0,,,,,-2.06E-03,8.00E-02
,,,-2.06E-03,8.00E-02,,,,,-2.06E-03,0
,,,-2.05E-03,0,,,,,-2.05E-03,8.00E-02
,,,-2.05E-03,0,,,,,-2.05E-03,0
,,,-2.05E-03,0,,,,,-2.05E-03,0
,,,-2.05E-03,8.00E-02,,,,,-2.05E-03,0
,,,-2.05E-03,8.00E-02,,,,,-2.05E-03,0
,,,-2.04E-03,0,,,,,-2.04E-03,0
,,,-2.04E-03,0,,,,,-2.04E-03,0
,,,-2.04E-03,8.00E-02,,,,,-2.04E-03,8.00E-02
,,,-2.04E-03,8.00E-02,,,,,-2.04E-03,8.00E-02
,,,-2.04E-03,0,,,,,-2.04E-03,0
,,,-2.03E-03,0,,,,,-2.03E-03,0
,,,-2.03E-03,8.00E-02,,,,,-2.03E-03,0
,,,-2.03E-03,8.00E-02,,,,,-2.03E-03,8.00E-02
,,,-2.03E-03,0,,,,,-2.03E-03,8.00E-02
,,,-2.03E-03,0,,,,,-2.03E-03,0
,,,-2.02E-03,0,,,,,-2.02E-03,0
,,,-2.02E-03,0,,,,,-2.02E-03,8.00E-02
,,,-2.02E-03,0,,,,,-2.02E-03,0
,,,-2.02E-03,8.00E-02,,,,,-2.02E-03,0
,,,-2.02E-03,0,,,,,-2.02E-03,0
,,,-2.01E-03,0,,,,,-2.01E-03,0
,,,-2.01E-03,0,,,,,-2.01E-03,0
,,,-2.01E-03,0,,,,,-2.01E-03,8.00E-02
,,,-2.01E-03,0,,,,,-2.01E-03,0
,,,-2.01E-03,0,,,,,-2.01E-03,0
,,,-2.00E-03,8.00E-02,,,,,-2.00E-03,0
,,,-2.00E-03,0,,,,,-2.00E-03,0
,,,-2.00E-03,0,,,,,-2.00E-03,0
,,,-2.00E-03,0,,,,,-2.00E-03,0
,,,-2.00E-03,0,,,,,-2.00E-03,8.00E-02
,,,-1.99E-03,8.00E-02,,,,,-1.99E-03,0
,,,-1.99E-03,8.00E-02,,,,,-1.99E-03,0
,,,-1.99E-03,0,,,,,-1.99E-03,0
,,,-1.99E-03,0,,,,,-1.99E-03,0
,,,-1.99E-03,0,,,,,-1.99E-03,8.00E-02
,,,-1.98E-03,0,,,,,-1.98E-03,0
,,,-1.98E-03,8.00E-02,,,,,-1.98E-03,0
,,,-1.98E-03,0,,,,,-1.98E-03,8.00E-02
,,,-1.98E-03,8.00E-02,,,,,-1.98E-03,8.00E-02
,,,-1.98E-03,0,,,,,-1.98E-03,0
,,,-1.97E-03,0,,,,,-1.97E-03,8.00E-02
,,,-1.97E-03,8.00E-02,,,,,-1.97E-03,8.00E-02
,,,-1.97E-03,8.00E-02,,,,,-1.97E-03,8.00E-02
,,,-1.97E-03,0,,,,,-1.97E-03,0
,,,-1.97E-03,0,,,,,-1.97E-03,0
,,,-1.96E-03,0,,,,,-1.96E-03,8.00E-02
,,,-1.96E-03,0,,,,,-1.96E-03,0
,,,-1.96E-03,8.00E-02,,,,,-1.96E-03,8.00E-02
,,,-1.96E-03,0,,,,,-1.96E-03,0
,,,-1.96E-03,0,,,,,-1.96E-03,8.00E-02
,,,-1.95E-03,0,,,,,-1.95E-03,0
,,,-1.95E-03,0,,,,,-1.95E-03,0
,,,-1.95E-03,0,,,,,-1.95E-03,8.00E-02
,,,-1.95E-03,0,,,,,-1.95E-03,8.00E-02
,,,-1.95E-03,0,,,,,-1.95E-03,8.00E-02
,,,-1.94E-03,0,,,,,-1.94E-03,0
,,,-1.94E-03,8.00E-02,,,,,-1.94E-03,0
,,,-1.94E-03,0,,,,,-1.94E-03,8.00E-02
,,,-1.94E-03,8.00E-02,,,,,-1.94E-03,0
,,,-1.94E-03,0,,,,,-1.94E-03,0
,,,-1.93E-03,8.00E-02,,,,,-1.93E-03,8.00E-02
,,,-1.93E-03,0,,,,,-1.93E-03,0
,,,-1.93E-03,0,,,,,-1.93E-03,0
,,,-1.93E-03,8.00E-02,,,,,-1.93E-03,0
,,,-1.93E-03,0,,,,,-1.93E-03,8.00E-02
,,,-1.92E-03,0,,,,,-1.92E-03,0
,,,-1.92E-03,8.00E-02,,,,,-1.92E-03,0
,,,-1.92E-03,0,,,,,-1.92E-03,0
,,,-1.92E-03,0,,,,,-1.92E-03,0
,,,-1.92E-03,0,,,,,-1.92E-03,0
,,,-1.91E-03,0,,,,,-1.91E-03,8.00E-02
,,,-1.91E-03,0,,,,,-1.91E-03,8.00E-02
,,,-1.91E-03,8.00E-02,,,,,-1.91E-03,0
,,,-1.91E-03,-8.00E-02,,,,,-1.91E-03,0
,,,-1.91E-03,0,,,,,-1.91E-03,0
,,,-1.90E-03,0,,,,,-1.90E-03,0
,,,-1.90E-03,8.00E-02,,,,,-1.90E-03,8.00E-02
,,,-1.90E-03,8.00E-02,,,,,-1.90E-03,0
,,,-1.90E-03,8.00E-02,,,,,-1.90E-03,8.00E-02
,,,-1.90E-03,0,,,,,-1.90E-03,8.00E-02
,,,-1.89E-03,8.00E-02,,,,,-1.89E-03,0
,,,-1.89E-03,0,,,,,-1.89E-03,0
,,,-1.89E-03,8.00E-02,,,,,-1.89E-03,8.00E-02
,,,-1.89E-03,0,,,,,-1.89E-03,0
,,,-1.89E-03,8.00E-02,,,,,-1.89E-03,0
,,,-1.88E-03,0,,,,,-1.88E-03,0
,,,-1.88E-03,8.00E-02,,,,,-1.88E-03,8.00E-02
,,,-1.88E-03,0,,,,,-1.88E-03,0
,,,-1.88E-03,8.00E-02,,,,,-1.88E-03,0
,,,-1.88E-03,0,,,,,-1.88E-03,0
,,,-1.87E-03,8.00E-02,,,,,-1.87E-03,8.00E-02
,,,-1.87E-03,8.00E-02,,,,,-1.87E-03,0
,,,-1.87E-03,8.00E-02,,,,,-1.87E-03,8.00E-02
,,,-1.87E-03,0,,,,,-1.87E-03,0
,,,-1.87E-03,0,,,,,-1.87E-03,0
,,,-1.86E-03,0,,,,,-1.86E-03,8.00E-02
,,,-1.86E-03,0,,,,,-1.86E-03,0
,,,-1.86E-03,0,,,,,-1.86E-03,0
,,,-1.86E-03,8.00E-02,,,,,-1.86E-03,8.00E-02
,,,-1.86E-03,0,,,,,-1.86E-03,0
,,,-1.85E-03,8.00E-02,,,,,-1.85E-03,8.00E-02
,,,-1.85E-03,0,,,,,-1.85E-03,8.00E-02
,,,-1.85E-03,8.00E-02,,,,,-1.85E-03,0
,,,-1.85E-03,0,,,,,-1.85E-03,0
,,,-1.85E-03,8.00E-02,,,,,-1.85E-03,0
,,,-1.84E-03,0,,,,,-1.84E-03,0
,,,-1.84E-03,8.00E-02,,,,,-1.84E-03,8.00E-02
,,,-1.84E-03,8.00E-02,,,,,-1.84E-03,0
,,,-1.84E-03,0,,,,,-1.84E-03,0
,,,-1.84E-03,0,,,,,-1.84E-03,0
,,,-1.83E-03,0,,,,,-1.83E-03,0
,,,-1.83E-03,0,,,,,-1.83E-03,0
,,,-1.83E-03,0,,,,,-1.83E-03,0
,,,-1.83E-03,8.00E-02,,,,,-1.83E-03,0
,,,-1.83E-03,8.00E-02,,,,,-1.83E-03,8.00E-02
,,,-1.82E-03,0,,,,,-1.82E-03,0
,,,-1.82E-03,8.00E-02,,,,,-1.82E-03,0
,,,-1.82E-03,0,,,,,-1.82E-03,8.00E-02
,,,-1.82E-03,0,,,,,-1.82E-03,8.00E-02
,,,-1.82E-03,0,,,,,-1.82E-03,0
,,,-1.81E-03,0,,,,,-1.81E-03,0
,,,-1.81E-03,0,,,,,-1.81E-03,8.00E-02
,,,-1.81E-03,0,,,,,-1.81E-03,0
,,,-1.81E-03,0,,,,,-1.81E-03,0
,,,-1.81E-03,0,,,,,-1.81E-03,0
,,,-1.80E-03,8.00E-02,,,,,-1.80E-03,0
,,,-1.80E-03,0,,,,,-1.80E-03,0
,,,-1.80E-03,0,,,,,-1.80E-03,8.00E-02
,,,-1.80E-03,0,,,,,-1.80E-03,0
,,,-1.80E-03,8.00E-02,,,,,-1.80E-03,0
,,,-1.79E-03,0,,,,,-1.79E-03,0
,,,-1.79E-03,0,,,,,-1.79E-03,8.00E-02
,,,-1.79E-03,8.00E-02,,,,,-1.79E-03,0
,,,-1.79E-03,0,,,,,-1.79E-03,0
,,,-1.79E-03,0,,,,,-1.79E-03,0
,,,-1.78E-03,8.00E-02,,,,,-1.78E-03,8.00E-02
,,,-1.78E-03,0,,,,,-1.78E-03,8.00E-02
,,,-1.78E-03,8.00E-02,,,,,-1.78E-03,0
,,,-1.78E-03,8.00E-02,,,,,-1.78E-03,0
,,,-1.78E-03,8.00E-02,,,,,-1.78E-03,0
,,,-1.77E-03,0,,,,,-1.77E-03,0
,,,-1.77E-03,8.00E-02,,,,,-1.77E-03,0
,,,-1.77E-03,0,,,,,-1.77E-03,8.00E-02
,,,-1.77E-03,8.00E-02,,,,,-1.77E-03,0
,,,-1.77E-03,0,,,,,-1.77E-03,0
,,,-1.76E-03,0,,,,,-1.76E-03,8.00E-02
,,,-1.76E-03,0,,,,,-1.76E-03,0
,,,-1.76E-03,8.00E-02,,,,,-1.76E-03,8.00E-02
,,,-1.76E-03,0,,,,,-1.76E-03,0
,,,-1.76E-03,0,,,,,-1.76E-03,0
,,,-1.75E-03,0,,,,,-1.75E-03,0
,,,-1.75E-03,0,,,,,-1.75E-03,0
,,,-1.75E-03,0,,,,,-1.75E-03,8.00E-02
,,,-1.75E-03,8.00E-02,,,,,-1.75E-03,0
,,,-1.75E-03,8.00E-02,,,,,-1.75E-03,8.00E-02
,,,-1.74E-03,8.00E-02,,,,,-1.74E-03,0
,,,-1.74E-03,0,,,,,-1.74E-03,8.00E-02
,,,-1.74E-03,8.00E-02,,,,,-1.74E-03,0
,,,-1.74E-03,0,,,,,-1.74E-03,0
,,,-1.74E-03,0,,,,,-1.74E-03,8.00E-02
,,,-1.73E-03,8.00E-02,,,,,-1.73E-03,8.00E-02
,,,-1.73E-03,0,,,,,-1.73E-03,0
,,,-1.73E-03,8.00E-02,,,,,-1.73E-03,0
,,,-1.73E-03,0,,,,,-1.73E-03,0
,,,-1.73E-03,0,,,,,-1.73E-03,0
,,,-1.72E-03,0,,,,,-1.72E-03,0
,,,-1.72E-03,0,,,,,-1.72E-03,0
,,,-1.72E-03,0,,,,,-1.72E-03,8.00E-02
,,,-1.72E-03,0,,,,,-1.72E-03,0
,,,-1.72E-03,8.00E-02,,,,,-1.72E-03,0
,,,-1.71E-03,8.00E-02,,,,,-1.71E-03,8.00E-02
,,,-1.71E-03,8.00E-02,,,,,-1.71E-03,0
,,,-1.71E-03,8.00E-02,,,,,-1.71E-03,0
,,,-1.71E-03,0,,,,,-1.71E-03,8.00E-02
,,,-1.71E-03,0,,,,,-1.71E-03,8.00E-02
,,,-1.70E-03,8.00E-02,,,,,-1.70E-03,0
,,,-1.70E-03,0,,,,,-1.70E-03,8.00E-02
,,,-1.70E-03,0,,,,,-1.70E-03,0
,,,-1.70E-03,0,,,,,-1.70E-03,0
,,,-1.70E-03,0,,,,,-1.70E-03,8.00E-02
,,,-1.69E-03,0,,,,,-1.69E-03,8.00E-02
,,,-1.69E-03,0,,,,,-1.69E-03,0
,,,-1.69E-03,0,,,,,-1.69E-03,0
,,,-1.69E-03,8.00E-02,,,,,-1.69E-03,0
,,,-1.69E-03,0,,,,,-1.69E-03,0
,,,-1.68E-03,8.00E-02,,,,,-1.68E-03,0
,,,-1.68E-03,0,,,,,-1.68E-03,8.00E-02
,,,-1.68E-03,8.00E-02,,,,,-1.68E-03,-8.00E-02
,,,-1.68E-03,0,,,,,-1.68E-03,0
,,,-1.68E-03,0,,,,,-1.68E-03,0
,,,-1.67E-03,8.00E-02,,,,,-1.67E-03,0
,,,-1.67E-03,0,,,,,-1.67E-03,0
,,,-1.67E-03,8.00E-02,,,,,-1.67E-03,8.00E-02
,,,-1.67E-03,0,,,,,-1.67E-03,8.00E-02
,,,-1.67E-03,8.00E-02,,,,,-1.67E-03,8.00E-02
,,,-1.66E-03,8.00E-02,,,,,-1.66E-03,0
,,,-1.66E-03,0,,,,,-1.66E-03,8.00E-02
,,,-1.66E-03,0,,,,,-1.66E-03,0
,,,-1.66E-03,0,,,,,-1.66E-03,8.00E-02
,,,-1.66E-03,0,,,,,-1.66E-03,0
,,,-1.65E-03,0,,,,,-1.65E-03,0
,,,-1.65E-03,0,,,,,-1.65E-03,0
,,,-1.65E-03,0,,,,,-1.65E-03,0
,,,-1.65E-03,8.00E-02,,,,,-1.65E-03,8.00E-02
,,,-1.65E-03,0,,,,,-1.65E-03,8.00E-02
,,,-1.64E-03,8.00E-02,,,,,-1.64E-03,0
,,,-1.64E-03,0,,,,,-1.64E-03,0
,,,-1.64E-03,0,,,,,-1.64E-03,8.00E-02
,,,-1.64E-03,0,,,,,-1.64E-03,8.00E-02
,,,-1.64E-03,0,,,,,-1.64E-03,0
,,,-1.63E-03,0,,,,,-1.63E-03,8.00E-02
,,,-1.63E-03,8.00E-02,,,,,-1.63E-03,0
,,,-1.63E-03,8.00E-02,,,,,-1.63E-03,0
,,,-1.63E-03,0,,,,,-1.63E-03,0
,,,-1.63E-03,0,,,,,-1.63E-03,0
,,,-1.62E-03,0,,,,,-1.62E-03,0
,,,-1.62E-03,0,,,,,-1.62E-03,0
,,,-1.62E-03,0,,,,,-1.62E-03,0
,,,-1.62E-03,0,,,,,-1.62E-03,8.00E-02
,,,-1.62E-03,0,,,,,-1.62E-03,8.00E-02
,,,-1.61E-03,0,,,,,-1.61E-03,8.00E-02
,,,-1.61E-03,0,,,,,-1.61E-03,0
,,,-1.61E-03,8.00E-02,,,,,-1.61E-03,0
,,,-1.61E-03,0,,,,,-1.61E-03,8.00E-02
,,,-1.61E-03,8.00E-02,,,,,-1.61E-03,8.00E-02
,,,-1.60E-03,8.00E-02,,,,,-1.60E-03,0
,,,-1.60E-03,0,,,,,-1.60E-03,0
,,,-1.60E-03,0,,,,,-1.60E-03,0
,,,-1.60E-03,0,,,,,-1.60E-03,0
,,,-1.60E-03,8.00E-02,,,,,-1.60E-03,0
,,,-1.59E-03,8.00E-02,,,,,-1.59E-03,8.00E-02
,,,-1.59E-03,8.00E-02,,,,,-1.59E-03,8.00E-02
,,,-1.59E-03,8.00E-02,,,,,-1.59E-03,0
,,,-1.59E-03,0,,,,,-1.59E-03,0
,,,-1.59E-03,0,,,,,-1.59E-03,0
,,,-1.58E-03,0,,,,,-1.58E-03,0
,,,-1.58E-03,0,,,,,-1.58E-03,8.00E-02
,,,-1.58E-03,8.00E-02,,,,,-1.58E-03,0
,,,-1.58E-03,0,,,,,-1.58E-03,0
,,,-1.58E-03,8.00E-02,,,,,-1.58E-03,0
,,,-1.57E-03,8.00E-02,,,,,-1.57E-03,0
,,,-1.57E-03,8.00E-02,,,,,-1.57E-03,0
,,,-1.57E-03,0,,,,,-1.57E-03,8.00E-02
,,,-1.57E-03,0,,,,,-1.57E-03,0
,,,-1.57E-03,8.00E-02,,,,,-1.57E-03,0
,,,-1.56E-03,0,,,,,-1.56E-03,0
,,,-1.56E-03,0,,,,,-1.56E-03,8.00E-02
,,,-1.56E-03,0,,,,,-1.56E-03,0
,,,-1.56E-03,0,,,,,-1.56E-03,0
,,,-1.56E-03,0,,,,,-1.56E-03,0
,,,-1.55E-03,8.00E-02,,,,,-1.55E-03,0
,,,-1.55E-03,0,,,,,-1.55E-03,8.00E-02
,,,-1.55E-03,0,,,,,-1.55E-03,8.00E-02
,,,-1.55E-03,0,,,,,-1.55E-03,0
,,,-1.55E-03,0,,,,,-1.55E-03,8.00E-02
,,,-1.54E-03,0,,,,,-1.54E-03,8.00E-02
,,,-1.54E-03,8.00E-02,,,,,-1.54E-03,0
,,,-1.54E-03,8.00E-02,,,,,-1.54E-03,0
,,,-1.54E-03,0,,,,,-1.54E-03,8.00E-02
,,,-1.54E-03,0,,,,,-1.54E-03,0
,,,-1.53E-03,0,,,,,-1.53E-03,0
,,,-1.53E-03,0,,,,,-1.53E-03,0
,,,-1.53E-03,0,,,,,-1.53E-03,0
,,,-1.53E-03,0,,,,,-1.53E-03,0
,,,-1.53E-03,0,,,,,-1.53E-03,0
,,,-1.52E-03,0,,,,,-1.52E-03,8.00E-02
,,,-1.52E-03,0,,,,,-1.52E-03,0
,,,-1.52E-03,0,,,,,-1.52E-03,0
,,,-1.52E-03,0,,,,,-1.52E-03,8.00E-02
,,,-1.52E-03,0,,,,,-1.52E-03,0
,,,-1.51E-03,0,,,,,-1.51E-03,0
,,,-1.51E-03,0,,,,,-1.51E-03,0
,,,-1.51E-03,0,,,,,-1.51E-03,8.00E-02
,,,-1.51E-03,8.00E-02,,,,,-1.51E-03,0
,,,-1.51E-03,8.00E-02,,,,,-1.51E-03,8.00E-02
,,,-1.50E-03,0,,,,,-1.50E-03,8.00E-02
,,,-1.50E-03,0,,,,,-1.50E-03,8.00E-02
,,,-1.50E-03,0,,,,,-1.50E-03,0
,,,-1.50E-03,0,,,,,-1.50E-03,0
,,,-1.50E-03,8.00E-02,,,,,-1.50E-03,0
,,,-1.49E-03,0,,,,,-1.49E-03,0
,,,-1.49E-03,8.00E-02,,,,,-1.49E-03,8.00E-02
,,,-1.49E-03,8.00E-02,,,,,-1.49E-03,0
,,,-1.49E-03,0,,,,,-1.49E-03,0
,,,-1.49E-03,0,,,,,-1.49E-03,0
,,,-1.48E-03,0,,,,,-1.48E-03,0
,,,-1.48E-03,8.00E-02,,,,,-1.48E-03,0
,,,-1.48E-03,0,,,,,-1.48E-03,0
,,,-1.48E-03,8.00E-02,,,,,-1.48E-03,0
,,,-1.48E-03,0,,,,,-1.48E-03,8.00E-02
,,,-1.47E-03,8.00E-02,,,,,-1.47E-03,0
,,,-1.47E-03,0,,,,,-1.47E-03,0
,,,-1.47E-03,0,,,,,-1.47E-03,0
,,,-1.47E-03,8.00E-02,,,,,-1.47E-03,0
,,,-1.47E-03,8.00E-02,,,,,-1.47E-03,8.00E-02
,,,-1.46E-03,8.00E-02,,,,,-1.46E-03,0
,,,-1.46E-03,0,,,,,-1.46E-03,8.00E-02
,,,-1.46E-03,8.00E-02,,,,,-1.46E-03,8.00E-02
,,,-1.46E-03,8.00E-02,,,,,-1.46E-03,0
,,,-1.46E-03,0,,,,,-1.46E-03,8.00E-02
,,,-1.45E-03,8.00E-02,,,,,-1.45E-03,8.00E-02
,,,-1.45E-03,8.00E-02,,,,,-1.45E-03,0
,,,-1.45E-03,8.00E-02,,,,,-1.45E-03,0
,,,-1.45E-03,0,,,,,-1.45E-03,0
,,,-1.45E-03,0,,,,,-1.45E-03,8.00E-02
,,,-1.44E-03,0,,,,,-1.44E-03,0
,,,-1.44E-03,0,,,,,-1.44E-03,0
,,,-1.44E-03,0,,,,,-1.44E-03,0
,,,-1.44E-03,0,,,,,-1.44E-03,0
,,,-1.44E-03,0,,,,,-1.44E-03,8.00E-02
,,,-1.43E-03,0,,,,,-1.43E-03,0
,,,-1.43E-03,0,,,,,-1.43E-03,8.00E-02
,,,-1.43E-03,0,,,,,-1.43E-03,0
,,,-1.43E-03,8.00E-02,,,,,-1.43E-03,0
,,,-1.43E-03,8.00E-02,,,,,-1.43E-03,0
,,,-1.42E-03,0,,,,,-1.42E-03,0
,,,-1.42E-03,0,,,,,-1.42E-03,8.00E-02
,,,-1.42E-03,0,,,,,-1.42E-03,0
,,,-1.42E-03,0,,,,,-1.42E-03,0
,,,-1.42E-03,8.00E-02,,,,,-1.42E-03,8.00E-02
,,,-1.41E-03,8.00E-02,,,,,-1.41E-03,0
,,,-1.41E-03,0,,,,,-1.41E-03,0
,,,-1.41E-03,0,,,,,-1.41E-03,8.00E-02
,,,-1.41E-03,8.00E-02,,,,,-1.41E-03,0
,,,-1.41E-03,0,,,,,-1.41E-03,0
,,,-1.40E-03,0,,,,,-1.40E-03,0
,,,-1.40E-03,0,,,,,-1.40E-03,0
,,,-1.40E-03,0,,,,,-1.40E-03,0
,,,-1.40E-03,0,,,,,-1.40E-03,8.00E-02
,,,-1.40E-03,0,,,,,-1.40E-03,8.00E-02
,,,-1.39E-03,0,,,,,-1.39E-03,8.00E-02
,,,-1.39E-03,0,,,,,-1.39E-03,0
,,,-1.39E-03,8.00E-02,,,,,-1.39E-03,8.00E-02
,,,-1.39E-03,0,,,,,-1.39E-03,0
,,,-1.39E-03,8.00E-02,,,,,-1.39E-03,0
,,,-1.38E-03,0,,,,,-1.38E-03,0
,,,-1.38E-03,0,,,,,-1.38E-03,0
,,,-1.38E-03,8.00E-02,,,,,-1.38E-03,0
,,,-1.38E-03,0,,,,,-1.38E-03,0
,,,-1.38E-03,8.00E-02,,,,,-1.38E-03,8.00E-02
,,,-1.37E-03,0,,,,,-1.37E-03,0
,,,-1.37E-03,8.00E-02,,,,,-1.37E-03,8.00E-02
,,,-1.37E-03,0,,,,,-1.37E-03,0
,,,-1.37E-03,8.00E-02,,,,,-1.37E-03,8.00E-02
,,,-1.37E-03,0,,,,,-1.37E-03,0
,,,-1.36E-03,8.00E-02,,,,,-1.36E-03,8.00E-02
,,,-1.36E-03,8.00E-02,,,,,-1.36E-03,0
,,,-1.36E-03,0,,,,,-1.36E-03,8.00E-02
,,,-1.36E-03,0,,,,,-1.36E-03,0
,,,-1.36E-03,8.00E-02,,,,,-1.36E-03,8.00E-02
,,,-1.35E-03,0,,,,,-1.35E-03,8.00E-02
,,,-1.35E-03,0,,,,,-1.35E-03,8.00E-02
,,,-1.35E-03,0,,,,,-1.35E-03,8.00E-02
,,,-1.35E-03,8.00E-02,,,,,-1.35E-03,8.00E-02
,,,-1.35E-03,0,,,,,-1.35E-03,0
,,,-1.34E-03,0,,,,,-1.34E-03,0
,,,-1.34E-03,8.00E-02,,,,,-1.34E-03,0
,,,-1.34E-03,8.00E-02,,,,,-1.34E-03,8.00E-02
,,,-1.34E-03,0,,,,,-1.34E-03,8.00E-02
,,,-1.34E-03,0,,,,,-1.34E-03,8.00E-02
,,,-1.33E-03,0,,,,,-1.33E-03,0
,,,-1.33E-03,8.00E-02,,,,,-1.33E-03,0
,,,-1.33E-03,0,,,,,-1.33E-03,0
,,,-1.33E-03,0,,,,,-1.33E-03,8.00E-02
,,,-1.33E-03,8.00E-02,,,,,-1.33E-03,8.00E-02
,,,-1.32E-03,0,,,,,-1.32E-03,0
,,,-1.32E-03,0,,,,,-1.32E-03,0
,,,-1.32E-03,0,,,,,-1.32E-03,0
,,,-1.32E-03,8.00E-02,,,,,-1.32E-03,0
,,,-1.32E-03,0,,,,,-1.32E-03,0
,,,-1.31E-03,0,,,,,-1.31E-03,8.00E-02
,,,-1.31E-03,0,,,,,-1.31E-03,0
,,,-1.31E-03,8.00E-02,,,,,-1.31E-03,8.00E-02
,,,-1.31E-03,8.00E-02,,,,,-1.31E-03,8.00E-02
,,,-1.31E-03,0,,,,,-1.31E-03,0
,,,-1.30E-03,0,,,,,-1.30E-03,8.00E-02
,,,-1.30E-03,0,,,,,-1.30E-03,8.00E-02
,,,-1.30E-03,8.00E-02,,,,,-1.30E-03,8.00E-02
,,,-1.30E-03,0,,,,,-1.30E-03,0
,,,-1.30E-03,8.00E-02,,,,,-1.30E-03,0
,,,-1.29E-03,8.00E-02,,,,,-1.29E-03,0
,,,-1.29E-03,0,,,,,-1.29E-03,0
,,,-1.29E-03,0,,,,,-1.29E-03,8.00E-02
,,,-1.29E-03,0,,,,,-1.29E-03,8.00E-02
,,,-1.29E-03,0,,,,,-1.29E-03,0
,,,-1.28E-03,0,,,,,-1.28E-03,0
,,,-1.28E-03,0,,,,,-1.28E-03,0
,,,-1.28E-03,8.00E-02,,,,,-1.28E-03,0
,,,-1.28E-03,8.00E-02,,,,,-1.28E-03,0
,,,-1.28E-03,0,,,,,-1.28E-03,8.00E-02
,,,-1.27E-03,8.00E-02,,,,,-1.27E-03,8.00E-02
,,,-1.27E-03,0,,,,,-1.27E-03,0
,,,-1.27E-03,0,,,,,-1.27E-03,0
,,,-1.27E-03,8.00E-02,,,,,-1.27E-03,8.00E-02
,,,-1.27E-03,0,,,,,-1.27E-03,0
,,,-1.26E-03,0,,,,,-1.26E-03,0
,,,-1.26E-03,0,,,,,-1.26E-03,0
,,,-1.26E-03,8.00E-02,,,,,-1.26E-03,0
,,,-1.26E-03,8.00E-02,,,,,-1.26E-03,0
,,,-1.26E-03,0,,,,,-1.26E-03,0
,,,-1.25E-03,8.00E-02,,,,,-1.25E-03,0
,,,-1.25E-03,0,,,,,-1.25E-03,8.00E-02
,,,-1.25E-03,8.00E-02,,,,,-1.25E-03,0
,,,-1.25E-03,8.00E-02,,,,,-1.25E-03,0
,,,-1.25E-03,0,,,,,-1.25E-03,8.00E-02
,,,-1.24E-03,0,,,,,-1.24E-03,0
,,,-1.24E-03,0,,,,,-1.24E-03,0
,,,-1.24E-03,0,,,,,-1.24E-03,0
,,,-1.24E-03,8.00E-02,,,,,-1.24E-03,8.00E-02
,,,-1.24E-03,0,,,,,-1.24E-03,0
,,,-1.23E-03,0,,,,,-1.23E-03,8.00E-02
,,,-1.23E-03,0,,,,,-1.23E-03,0
,,,-1.23E-03,0,,,,,-1.23E-03,0
,,,-1.23E-03,8.00E-02,,,,,-1.23E-03,0
,,,-1.23E-03,8.00E-02,,,,,-1.23E-03,0
,,,-1.22E-03,0,,,,,-1.22E-03,0
,,,-1.22E-03,0,,,,,-1.22E-03,0
,,,-1.22E-03,8.00E-02,,,,,-1.22E-03,0
,,,-1.22E-03,0,,,,,-1.22E-03,0
,,,-1.22E-03,0,,,,,-1.22E-03,0
,,,-1.21E-03,0,,,,,-1.21E-03,0
,,,-1.21E-03,0,,,,,-1.21E-03,0
,,,-1.21E-03,8.00E-02,,,,,-1.21E-03,8.00E-02
,,,-1.21E-03,8.00E-02,,,,,-1.21E-03,8.00E-02
,,,-1.21E-03,0,,,,,-1.21E-03,0
,,,-1.20E-03,0,,,,,-1.20E-03,0
,,,-1.20E-03,0,,,,,-1.20E-03,8.00E-02
,,,-1.20E-03,8.00E-02,,,,,-1.20E-03,8.00E-02
,,,-1.20E-03,8.00E-02,,,,,-1.20E-03,0
,,,-1.20E-03,8.00E-02,,,,,-1.20E-03,0
,,,-1.19E-03,8.00E-02,,,,,-1.19E-03,0
,,,-1.19E-03,0,,,,,-1.19E-03,0
,,,-1.19E-03,0,,,,,-1.19E-03,8.00E-02
,,,-1.19E-03,8.00E-02,,,,,-1.19E-03,0
,,,-1.19E-03,8.00E-02,,,,,-1.19E-03,0
,,,-1.18E-03,8.00E-02,,,,,-1.18E-03,0
,,,-1.18E-03,8.00E-02,,,,,-1.18E-03,0
,,,-1.18E-03,8.00E-02,,,,,-1.18E-03,0
,,,-1.18E-03,0,,,,,-1.18E-03,0
,,,-1.18E-03,8.00E-02,,,,,-1.18E-03,0
,,,-1.17E-03,8.00E-02,,,,,-1.17E-03,8.00E-02
,,,-1.17E-03,8.00E-02,,,,,-1.17E-03,0
,,,-1.17E-03,0,,,,,-1.17E-03,8.00E-02
,,,-1.17E-03,8.00E-02,,,,,-1.17E-03,8.00E-02
,,,-1.17E-03,0,,,,,-1.17E-03,8.00E-02
,,,-1.16E-03,0,,,,,-1.16E-03,0
,,,-1.16E-03,8.00E-02,,,,,-1.16E-03,0
,,,-1.16E-03,0,,,,,-1.16E-03,8.00E-02
,,,-1.16E-03,0,,,,,-1.16E-03,0
,,,-1.16E-03,0,,,,,-1.16E-03,0
,,,-1.15E-03,0,,,,,-1.15E-03,-8.00E-02
,,,-1.15E-03,0,,,,,-1.15E-03,8.00E-02
,,,-1.15E-03,8.00E-02,,,,,-1.15E-03,0
,,,-1.15E-03,0,,,,,-1.15E-03,0
,,,-1.15E-03,8.00E-02,,,,,-1.15E-03,0
,,,-1.14E-03,8.00E-02,,,,,-1.14E-03,0
,,,-1.14E-03,0,,,,,-1.14E-03,0
,,,-1.14E-03,0,,,,,-1.14E-03,8.00E-02
,,,-1.14E-03,8.00E-02,,,,,-1.14E-03,8.00E-02
,,,-1.14E-03,0,,,,,-1.14E-03,0
,,,-1.13E-03,0,,,,,-1.13E-03,0
,,,-1.13E-03,8.00E-02,,,,,-1.13E-03,8.00E-02
,,,-1.13E-03,8.00E-02,,,,,-1.13E-03,8.00E-02
,,,-1.13E-03,0,,,,,-1.13E-03,0
,,,-1.13E-03,8.00E-02,,,,,-1.13E-03,0
,,,-1.12E-03,0,,,,,-1.12E-03,0
,,,-1.12E-03,0,,,,,-1.12E-03,8.00E-02
,,,-1.12E-03,0,,,,,-1.12E-03,8.00E-02
,,,-1.12E-03,0,,,,,-1.12E-03,0
,,,-1.12E-03,8.00E-02,,,,,-1.12E-03,0
,,,-1.11E-03,0,,,,,-1.11E-03,0
,,,-1.11E-03,8.00E-02,,,,,-1.11E-03,0
,,,-1.11E-03,8.00E-02,,,,,-1.11E-03,8.00E-02
,,,-1.11E-03,0,,,,,-1.11E-03,8.00E-02
,,,-1.11E-03,0,,,,,-1.11E-03,0
,,,-1.10E-03,8.00E-02,,,,,-1.10E-03,0
,,,-1.10E-03,8.00E-02,,,,,-1.10E-03,0
,,,-1.10E-03,0,,,,,-1.10E-03,8.00E-02
,,,-1.10E-03,8.00E-02,,,,,-1.10E-03,0
,,,-1.10E-03,0,,,,,-1.10E-03,0
,,,-1.09E-03,0,,,,,-1.09E-03,8.00E-02
,,,-1.09E-03,8.00E-02,,,,,-1.09E-03,8.00E-02
,,,-1.09E-03,0,,,,,-1.09E-03,0
,,,-1.09E-03,8.00E-02,,,,,-1.09E-03,0
,,,-1.09E-03,8.00E-02,,,,,-1.09E-03,0
,,,-1.08E-03,8.00E-02,,,,,-1.08E-03,0
,,,-1.08E-03,8.00E-02,,,,,-1.08E-03,8.00E-02
,,,-1.08E-03,8.00E-02,,,,,-1.08E-03,0
,,,-1.08E-03,8.00E-02,,,,,-1.08E-03,0
,,,-1.08E-03,0,,,,,-1.08E-03,8.00E-02
,,,-1.07E-03,0,,,,,-1.07E-03,0
,,,-1.07E-03,8.00E-02,,,,,-1.07E-03,8.00E-02
,,,-1.07E-03,8.00E-02,,,,,-1.07E-03,0
,,,-1.07E-03,8.00E-02,,,,,-1.07E-03,0
,,,-1.07E-03,8.00E-02,,,,,-1.07E-03,0
,,,-1.06E-03,0,,,,,-1.06E-03,0
,,,-1.06E-03,8.00E-02,,,,,-1.06E-03,0
,,,-1.06E-03,8.00E-02,,,,,-1.06E-03,0
,,,-1.06E-03,0,,,,,-1.06E-03,0
,,,-1.06E-03,0,,,,,-1.06E-03,8.00E-02
,,,-1.05E-03,0,,,,,-1.05E-03,0
,,,-1.05E-03,8.00E-02,,,,,-1.05E-03,8.00E-02
,,,-1.05E-03,0,,,,,-1.05E-03,0
,,,-1.05E-03,8.00E-02,,,,,-1.05E-03,0
,,,-1.05E-03,8.00E-02,,,,,-1.05E-03,0
,,,-1.04E-03,0,,,,,-1.04E-03,0
,,,-1.04E-03,0,,,,,-1.04E-03,0
,,,-1.04E-03,0,,,,,-1.04E-03,0
,,,-1.04E-03,0,,,,,-1.04E-03,8.00E-02
,,,-1.04E-03,8.00E-02,,,,,-1.04E-03,0
,,,-1.03E-03,0,,,,,-1.03E-03,0
,,,-1.03E-03,8.00E-02,,,,,-1.03E-03,0
,,,-1.03E-03,0,,,,,-1.03E-03,0
,,,-1.03E-03,0,,,,,-1.03E-03,8.00E-02
,,,-1.03E-03,0,,,,,-1.03E-03,0
,,,-1.02E-03,0,,,,,-1.02E-03,0
,,,-1.02E-03,0,,,,,-1.02E-03,0
,,,-1.02E-03,0,,,,,-1.02E-03,8.00E-02
